%YAML 1.1
%TAG !u! tag:unity3d.com,2011:
--- !u!114 &11400000
MonoBehaviour:
  m_ObjectHideFlags: 0
  m_CorrespondingSourceObject: {fileID: 0}
  m_PrefabInstance: {fileID: 0}
  m_PrefabAsset: {fileID: 0}
  m_GameObject: {fileID: 0}
  m_Enabled: 1
  m_EditorHideFlags: 0
  m_Script: {fileID: 11500000, guid: 61b250ea40f94b96abbfe232f5f94551, type: 3}
  m_Name: grassPainterOrig
  m_EditorClassIdentifier: 
  Target: 0
  DensityChannel: 0
  ColorHeightChannel: 1
  Brush: 2
  PaintColor: {r: 1, g: 1, b: 1, a: 1}
  PaintDensity: 1
  Strength: 0.1
  Size: 3
  Softness: 0.5
  Spacing: 0.5
  Rotation: 0
  GrassColliders: []
  ColorHeightTexture: {fileID: 0}
  DensityTexture: {fileID: 0}
